\contentsline {chapter}{\numberline {1}Introduction}{4}
\contentsline {section}{\numberline {1.1}Problem Statement}{4}
\contentsline {section}{\numberline {1.2}Goal and Scope}{4}
\contentsline {section}{\numberline {1.3}Related Works}{4}
\contentsline {subsubsection}{\IeC {\'Z}r\IeC {\'o}d\IeC {\l }a ksi\IeC {\k a}\IeC {\.z}kowe polskoj\IeC {\k e}zyczne i t\IeC {\l }umaczenia}{4}
\contentsline {subsubsection}{\IeC {\'Z}r\IeC {\'o}d\IeC {\l }a ksi\IeC {\k a}\IeC {\.z}kowe obcoj\IeC {\k e}zyczne}{4}
\contentsline {subsubsection}{Artyku\IeC {\l }y naukowe, raporty z bada\IeC {\'n}, komunikaty konferencyjne, dokumentacje techniczne, manuale, instrukcje}{4}
\contentsline {subsubsection}{\IeC {\'Z}r\IeC {\'o}d\IeC {\l }a elektroniczne}{4}
\contentsline {section}{\numberline {1.4}Document Structure}{4}
\contentsline {chapter}{\numberline {2}Relational and Non-relational In-memory Databases}{5}
\contentsline {section}{\numberline {2.1}Basic Concepts and Definitions}{5}
\contentsline {subsection}{\numberline {2.1.1}Definitions}{5}
\contentsline {section}{\numberline {2.2}Relational Databases}{5}
\contentsline {section}{\numberline {2.3}Non-relational Databases}{5}
\contentsline {section}{\numberline {2.4}In-Memory Databases}{5}
\contentsline {chapter}{\numberline {3}Experimental Studies}{6}
\contentsline {section}{\numberline {3.1}Methodology Overview}{6}
\contentsline {subsection}{\numberline {3.1.1}Method Description}{6}
\contentsline {subsection}{\numberline {3.1.2}Dataset}{6}
\contentsline {subsubsection}{Relational Model}{7}
\contentsline {subsubsection}{Document Store Model}{7}
\contentsline {subsubsection}{Key-Value Store Model}{7}
\contentsline {section}{\numberline {3.2}Evaluated Databases}{7}
\contentsline {subsection}{\numberline {3.2.1}VoltDB}{7}
\contentsline {subsection}{\numberline {3.2.2}rqlite}{7}
\contentsline {subsection}{\numberline {3.2.3}ArangoDB}{7}
\contentsline {subsection}{\numberline {3.2.4}MongoDB}{7}
\contentsline {subsection}{\numberline {3.2.5}LokiJS}{7}
\contentsline {section}{\numberline {3.3}Environment and Tools}{8}
\contentsline {subsection}{\numberline {3.3.1}Atom.io}{8}
\contentsline {subsection}{\numberline {3.3.2}SQL}{8}
\contentsline {subsection}{\numberline {3.3.3}AQL}{8}
\contentsline {subsection}{\numberline {3.3.4}JAVA}{8}
\contentsline {subsection}{\numberline {3.3.5}JavaScript}{8}
\contentsline {subsection}{\numberline {3.3.6}NodeJS}{8}
\contentsline {subsection}{\numberline {3.3.7}Percona}{8}
\contentsline {subsubsection}{Cluster - Web Workers}{8}
\contentsline {subsubsection}{VoltDB Driver}{8}
\contentsline {subsubsection}{MySQL Driver}{8}
\contentsline {subsubsection}{ArangoDB Driver}{8}
\contentsline {subsubsection}{MongoDB Driver}{8}
\contentsline {subsubsection}{LokiJS Driver}{8}
\contentsline {subsection}{\numberline {3.3.8}Test Configuration}{8}
\contentsline {chapter}{\numberline {4}Experimental Results}{9}
\contentsline {section}{\numberline {4.1}Results of Data Import Operations}{9}
\contentsline {section}{\numberline {4.2}Results of SELECT Queries}{9}
\contentsline {section}{\numberline {4.3}Results of SELECT all Queries}{9}
\contentsline {section}{\numberline {4.4}Results SELECT with WHERE Condition Queries}{9}
\contentsline {section}{\numberline {4.5}Results SELECT with WHERE and JOIN Statements Queries}{9}
\contentsline {section}{\numberline {4.6}Results of INSERT n Records Queries}{9}
\contentsline {section}{\numberline {4.7}Results of DELETE n Records Queries}{9}
\contentsline {section}{\numberline {4.8}Results of DELETE all Records Queries}{9}
\contentsline {section}{\numberline {4.9}Results Discussion}{9}
\contentsline {chapter}{\numberline {5}Conclusions}{10}
\contentsline {section}{\numberline {5.1}Summary}{10}
\contentsline {section}{\numberline {5.2}Further Development}{10}
\contentsline {chapter}{Bibliography}{10}
\contentsline {chapter}{List of Figures}{11}
\contentsline {chapter}{List of Tables}{12}
\contentsline {chapter}{Appendices}{13}
