\relax 
\bibstyle{ieeetr}
\babel@aux{english}{}
\@writefile{toc}{\contentsline {chapter}{\numberline {1}Introduction}{4}}
\@writefile{lof}{\addvspace {10\p@ }}
\@writefile{lot}{\addvspace {10\p@ }}
\newlabel{ch.1}{{1}{4}}
\@writefile{toc}{\contentsline {section}{\numberline {1.1}Problem Statement}{4}}
\@writefile{toc}{\contentsline {section}{\numberline {1.2}Purpose and Scope of Work}{5}}
\@writefile{toc}{\contentsline {section}{\numberline {1.3}Paper Structure}{6}}
\citation{codd12}
\citation{codd12}
\@writefile{toc}{\contentsline {chapter}{\numberline {2}Relational and Non-relational Databases}{8}}
\@writefile{lof}{\addvspace {10\p@ }}
\@writefile{lot}{\addvspace {10\p@ }}
\newlabel{ch.2}{{2}{8}}
\@writefile{toc}{\contentsline {section}{\numberline {2.1}Relational Model}{8}}
\@writefile{toc}{\contentsline {subsubsection}{Codd's 12 Rules}{8}}
\citation{codd12}
\citation{codd12}
\citation{codd12}
\citation{codd12}
\citation{codd12}
\citation{codd12}
\citation{codd12}
\citation{codd12}
\citation{codd12}
\citation{codd12}
\citation{codd12}
\citation{codd12}
\citation{img:url:relational}
\citation{img:url:relational}
\@writefile{toc}{\contentsline {subsubsection}{Terminology}{12}}
\@writefile{lof}{\contentsline {figure}{\numberline {2.1}{\ignorespaces Illustration of basic relational database terminology on its table\cite  {img:url:relational}.\relax }}{12}}
\providecommand*\caption@xref[2]{\@setref\relax\@undefined{#1}}
\newlabel{relational:model}{{2.1}{12}}
\@writefile{toc}{\contentsline {subsubsection}{Keys}{13}}
\citation{codd12}
\citation{rdbms:ranking}
\@writefile{toc}{\contentsline {section}{\numberline {2.2}Relational Databases}{14}}
\@writefile{toc}{\contentsline {section}{\numberline {2.3}Non-relational Databases}{15}}
\citation{nosql:ranking}
\citation{zte}
\citation{ram:prices}
\citation{inmemory:rise}
\citation{inmemory:management}
\citation{kinetica}
\@writefile{toc}{\contentsline {section}{\numberline {2.4}In-Memory Databases}{17}}
\@writefile{toc}{\contentsline {chapter}{\numberline {3}Experimental Studies}{19}}
\@writefile{lof}{\addvspace {10\p@ }}
\@writefile{lot}{\addvspace {10\p@ }}
\@writefile{toc}{\contentsline {section}{\numberline {3.1}Methodology Overview}{19}}
\@writefile{toc}{\contentsline {subsection}{\numberline {3.1.1}Research Purpose}{20}}
\citation{voltdb:import}
\citation{mongodb:import}
\citation{alasql:import}
\@writefile{toc}{\contentsline {subsection}{\numberline {3.1.2}Method Description}{21}}
\newlabel{method}{{3.1.2}{21}}
\newlabel{code:import:lokijs}{{3.1}{22}}
\@writefile{lol}{\contentsline {lstlisting}{\numberline {3.1}Example of code responsible to import the shops collection in the case of LokiJS database.}{22}}
\@writefile{lot}{\contentsline {table}{\numberline {3.1}{\ignorespaces The in-memory databases that are experimented in this paper.\relax }}{23}}
\newlabel{table:databases}{{3.1}{23}}
\@writefile{toc}{\contentsline {subsection}{\numberline {3.1.3}Dataset}{24}}
\newlabel{code:ddl}{{3.2}{24}}
\@writefile{lol}{\contentsline {lstlisting}{\numberline {3.2}Schema of the benchmark database.}{24}}
\@writefile{lot}{\contentsline {table}{\numberline {3.2}{\ignorespaces Data structure of the MySQL \textit  {shop} table.\relax }}{25}}
\newlabel{table:mysql:shop}{{3.2}{25}}
\@writefile{lot}{\contentsline {table}{\numberline {3.3}{\ignorespaces Data structure of the MySQL \textit  {category} table.\relax }}{26}}
\newlabel{table:mysql:category}{{3.3}{26}}
\@writefile{lot}{\contentsline {table}{\numberline {3.4}{\ignorespaces Data structure of the MySQL \textit  {product} table.\relax }}{26}}
\newlabel{table:mysql:product}{{3.4}{26}}
\@writefile{lot}{\contentsline {table}{\numberline {3.5}{\ignorespaces Data structure of the MySQL \textit  {offer} table.\relax }}{26}}
\newlabel{table:mysql:offer}{{3.5}{26}}
\@writefile{toc}{\contentsline {subsection}{\numberline {3.1.4}Relational Model}{27}}
\@writefile{lof}{\contentsline {figure}{\numberline {3.1}{\ignorespaces Relational model of the benchmark database schema.\relax }}{27}}
\newlabel{relational:schema}{{3.1}{27}}
\@writefile{toc}{\contentsline {subsection}{\numberline {3.1.5}Document Store Model}{27}}
\citation{voltdb:creation}
\citation{voltdb:intro}
\newlabel{document:store:shop}{{3.3}{28}}
\@writefile{lol}{\contentsline {lstlisting}{\numberline {3.3}Example of the shops collection document.}{28}}
\newlabel{document:store:category}{{3.4}{28}}
\@writefile{lol}{\contentsline {lstlisting}{\numberline {3.4}Example of the categories collection document.}{28}}
\newlabel{document:store:product}{{3.5}{28}}
\@writefile{lol}{\contentsline {lstlisting}{\numberline {3.5}Example of the products collection document.}{28}}
\newlabel{document:store:offer}{{3.6}{28}}
\@writefile{lol}{\contentsline {lstlisting}{\numberline {3.6}Example of the offers collection document.}{28}}
\citation{voltdb:why}
\citation{hstore}
\citation{voltdb:turing}
\citation{shared:nothing}
\citation{lmax}
\@writefile{toc}{\contentsline {section}{\numberline {3.2}Evaluated Databases}{29}}
\@writefile{toc}{\contentsline {subsection}{\numberline {3.2.1}VoltDB}{29}}
\citation{alasql:creation}
\citation{etl}
\@writefile{toc}{\contentsline {subsection}{\numberline {3.2.2}AlaSQL}{30}}
\citation{mongodb:inmemory:storage}
\citation{mongodb:percona:inmemory:engine}
\citation{percona:manual}
\@writefile{toc}{\contentsline {subsection}{\numberline {3.2.3}MongoDB (Percona Server)}{31}}
\@writefile{toc}{\contentsline {subsection}{\numberline {3.2.4}LokiJS}{32}}
\@writefile{toc}{\contentsline {section}{\numberline {3.3}Environment and Tools}{33}}
\@writefile{toc}{\contentsline {subsection}{\numberline {3.3.1}Testing Environment}{33}}
\@writefile{lot}{\contentsline {table}{\numberline {3.6}{\ignorespaces Specifications of the machine that is used to evaluate experiments.\relax }}{33}}
\newlabel{table:hardware}{{3.6}{33}}
\citation{sql}
\citation{sql:ibm}
\citation{sql:relational:model}
\citation{sql:system:r}
\citation{sql:trademark}
\@writefile{lot}{\contentsline {table}{\numberline {3.7}{\ignorespaces Specifications of the software that is used to evaluate experiments.\relax }}{34}}
\newlabel{table:software}{{3.7}{34}}
\@writefile{toc}{\contentsline {subsection}{\numberline {3.3.2}Atom.io}{34}}
\@writefile{toc}{\contentsline {subsection}{\numberline {3.3.3}SQL}{34}}
\citation{js:creation:book}
\citation{js:creation:url}
\@writefile{toc}{\contentsline {subsection}{\numberline {3.3.4}Java}{37}}
\newlabel{voltdb:procedure:example}{{3.7}{37}}
\@writefile{lol}{\contentsline {lstlisting}{\numberline {3.7}A stored procedure returning all rows from the offer table. Its parameters are limit and offset\tmspace  +\thinmuskip {.1667em} that were defined due to VoltDB single query's memory usage limit.}{37}}
\newlabel{java:compile}{{3.8}{37}}
\@writefile{lol}{\contentsline {lstlisting}{\numberline {3.8}Commands used to compile the VoltDB stored procedures written in JAVA.}{37}}
\citation{nodejs:release}
\citation{nodejs:joyent}
\citation{nodejs:apache}
\citation{voltdb:driver}
\@writefile{toc}{\contentsline {subsection}{\numberline {3.3.5}JavaScript}{38}}
\@writefile{toc}{\contentsline {subsection}{\numberline {3.3.6}Node.js}{38}}
\@writefile{toc}{\contentsline {subsection}{\numberline {3.3.7}VoltDB Driver}{38}}
\newlabel{code:voltdb:driver:imports}{{3.9}{39}}
\@writefile{lol}{\contentsline {lstlisting}{\numberline {3.9}Node.js VoltDB Driver method that were imported in the benchmark application for experimental purposes.}{39}}
\newlabel{code:voltdb:procedure}{{3.10}{39}}
\@writefile{lol}{\contentsline {lstlisting}{\numberline {3.10}The Read1W stored procedure call within the benchmark application.}{39}}
\@writefile{toc}{\contentsline {subsection}{\numberline {3.3.8}MongoDB Driver}{40}}
\newlabel{code:mongodb:connection}{{3.11}{40}}
\@writefile{lol}{\contentsline {lstlisting}{\numberline {3.11}The examplary connection to the MongoDB database using the MongoDB Node.js database driver's MongoClient object.}{40}}
\newlabel{code:mongodb:example}{{3.12}{41}}
\@writefile{lol}{\contentsline {lstlisting}{\numberline {3.12}Example of a query call through the MongoDB Node.js database driver..}{41}}
\@writefile{toc}{\contentsline {chapter}{\numberline {4}Experimental Results}{42}}
\@writefile{lof}{\addvspace {10\p@ }}
\@writefile{lot}{\addvspace {10\p@ }}
\@writefile{toc}{\contentsline {section}{\numberline {4.1}Measurements Results}{42}}
\@writefile{lot}{\contentsline {table}{\numberline {4.1}{\ignorespaces Results of \textit  {IMPORT} operations in \textit  {milliseconds}.\relax }}{42}}
\newlabel{table:results:import}{{4.1}{42}}
\@writefile{lot}{\contentsline {table}{\numberline {4.2}{\ignorespaces Results of \textit  {SELECT * FROM ...} operations in \textit  {milliseconds}.\relax }}{43}}
\newlabel{table:results:select}{{4.2}{43}}
\@writefile{lot}{\contentsline {table}{\numberline {4.3}{\ignorespaces Results of \textit  {SELECT * FROM ... WHERE ...} operations in \textit  {milliseconds}.\relax }}{43}}
\newlabel{table:results:selectwhere}{{4.3}{43}}
\@writefile{lot}{\contentsline {table}{\numberline {4.4}{\ignorespaces Results of \textit  {SELECT * FROM ... JOIN ON ... WHERE ...} operations in \textit  {milliseconds}.\relax }}{44}}
\newlabel{table:results:join}{{4.4}{44}}
\@writefile{lot}{\contentsline {table}{\numberline {4.5}{\ignorespaces Results of \textit  {INSERT ... INTO ...} operations in \textit  {milliseconds}.\relax }}{44}}
\newlabel{table:results:insert}{{4.5}{44}}
\@writefile{lot}{\contentsline {table}{\numberline {4.6}{\ignorespaces Results of \textit  {UPDATE ... SET ... WHERE ...} operations in \textit  {milliseconds}.\relax }}{45}}
\newlabel{table:results:update}{{4.6}{45}}
\@writefile{lot}{\contentsline {table}{\numberline {4.7}{\ignorespaces Results of \textit  {DELETE ... FROM ... WHERE ...} operations in \textit  {milliseconds}.\relax }}{45}}
\newlabel{table:results:delete}{{4.7}{45}}
\@writefile{toc}{\contentsline {section}{\numberline {4.2}Results Discussion}{45}}
\@writefile{lof}{\contentsline {figure}{\numberline {4.1}{\ignorespaces In-memory databases SELECT * WHERE ... operations execution time with respect to the number of WHERE clause.\relax }}{46}}
\newlabel{chart:where}{{4.1}{46}}
\@writefile{lof}{\contentsline {figure}{\numberline {4.2}{\ignorespaces In-memory databases SELECT * JOIN ... ON ... WHERE ... operations execution time with respect to the number of JOIN and WHERE clauses.\relax }}{47}}
\newlabel{chart:join}{{4.2}{47}}
\@writefile{lof}{\contentsline {figure}{\numberline {4.3}{\ignorespaces In-memory databases INSERT ... INTO ... operations execution time with respect to the number of simultaneous requests.\relax }}{48}}
\newlabel{chart:create}{{4.3}{48}}
\@writefile{lof}{\contentsline {figure}{\numberline {4.4}{\ignorespaces In-memory databases UPDATE ... SET ... WHERE ... operations execution time with respect to the number of simultaneous requests.\relax }}{49}}
\newlabel{chart:update}{{4.4}{49}}
\@writefile{lof}{\contentsline {figure}{\numberline {4.5}{\ignorespaces In-memory databases DELETE ... FROM ... WHERE ... operations execution time with respect to the number of simultaneous requests.\relax }}{50}}
\newlabel{chart:delete}{{4.5}{50}}
\@writefile{toc}{\contentsline {chapter}{\numberline {5}Conclusions}{51}}
\@writefile{lof}{\addvspace {10\p@ }}
\@writefile{lot}{\addvspace {10\p@ }}
\@writefile{toc}{\contentsline {section}{\numberline {5.1}Summary}{51}}
\bibdata{biblio}
\@writefile{toc}{\contentsline {section}{\numberline {5.2}Further Development}{53}}
\@writefile{toc}{\contentsline {chapter}{Bibliography}{53}}
\bibcite{codd12}{1}
\bibcite{img:url:relational}{2}
\bibcite{rdbms:ranking}{3}
\bibcite{nosql:ranking}{4}
\bibcite{zte}{5}
\bibcite{ram:prices}{6}
\bibcite{inmemory:rise}{7}
\bibcite{inmemory:management}{8}
\bibcite{kinetica}{9}
\bibcite{voltdb:import}{10}
\bibcite{mongodb:import}{11}
\bibcite{alasql:import}{12}
\bibcite{voltdb:creation}{13}
\bibcite{voltdb:intro}{14}
\bibcite{voltdb:why}{15}
\bibcite{hstore}{16}
\bibcite{voltdb:turing}{17}
\bibcite{shared:nothing}{18}
\bibcite{lmax}{19}
\bibcite{alasql:creation}{20}
\bibcite{etl}{21}
\bibcite{mongodb:inmemory:storage}{22}
\bibcite{mongodb:percona:inmemory:engine}{23}
\bibcite{percona:manual}{24}
\bibcite{sql}{25}
\bibcite{sql:ibm}{26}
\bibcite{sql:relational:model}{27}
\bibcite{sql:system:r}{28}
\bibcite{sql:trademark}{29}
\bibcite{js:creation:book}{30}
\bibcite{js:creation:url}{31}
\bibcite{nodejs:release}{32}
\bibcite{nodejs:joyent}{33}
\bibcite{nodejs:apache}{34}
\bibcite{voltdb:driver}{35}
\@writefile{toc}{\contentsline {chapter}{List of Figures}{57}}
\citation{img:url:relational}
\@writefile{toc}{\contentsline {chapter}{List of Tables}{58}}
