\relax 
\bibstyle{plain}
\babel@aux{english}{}
\@writefile{toc}{\contentsline {chapter}{\numberline {1}Introduction}{5}}
\@writefile{lof}{\addvspace {10\p@ }}
\@writefile{lot}{\addvspace {10\p@ }}
\newlabel{ch.1}{{1}{5}}
\@writefile{toc}{\contentsline {section}{\numberline {1.1}Problem Statement}{5}}
\@writefile{toc}{\contentsline {section}{\numberline {1.2}Goal and Scope}{5}}
\@writefile{toc}{\contentsline {section}{\numberline {1.3}Related Works}{5}}
\@writefile{toc}{\contentsline {subsubsection}{\IeC {\'Z}r\IeC {\'o}d\IeC {\l }a ksi\IeC {\k a}\IeC {\.z}kowe polskoj\IeC {\k e}zyczne i t\IeC {\l }umaczenia}{6}}
\@writefile{toc}{\contentsline {subsubsection}{\IeC {\'Z}r\IeC {\'o}d\IeC {\l }a ksi\IeC {\k a}\IeC {\.z}kowe obcoj\IeC {\k e}zyczne}{6}}
\@writefile{toc}{\contentsline {subsubsection}{Artyku\IeC {\l }y naukowe, raporty z bada\IeC {\'n}, komunikaty konferencyjne, dokumentacje techniczne, manuale, instrukcje}{6}}
\@writefile{toc}{\contentsline {subsubsection}{\IeC {\'Z}r\IeC {\'o}d\IeC {\l }a elektroniczne}{6}}
\@writefile{toc}{\contentsline {section}{\numberline {1.4}Document Structure}{6}}
\@writefile{toc}{\contentsline {chapter}{\numberline {2}Relational and Non-relational In-memory Databases}{7}}
\@writefile{lof}{\addvspace {10\p@ }}
\@writefile{lot}{\addvspace {10\p@ }}
\newlabel{ch.2}{{2}{7}}
\@writefile{toc}{\contentsline {section}{\numberline {2.1}Basic Concepts and Definitions}{7}}
\@writefile{toc}{\contentsline {subsection}{\numberline {2.1.1}Definitions}{8}}
\@writefile{toc}{\contentsline {section}{\numberline {2.2}Relational Databases}{8}}
\@writefile{toc}{\contentsline {section}{\numberline {2.3}Non-relational Databases}{8}}
\@writefile{toc}{\contentsline {section}{\numberline {2.4}In-Memory Databases}{8}}
\@writefile{toc}{\contentsline {chapter}{\numberline {3}Experimental Studies}{9}}
\@writefile{lof}{\addvspace {10\p@ }}
\@writefile{lot}{\addvspace {10\p@ }}
\@writefile{toc}{\contentsline {section}{\numberline {3.1}Methodology Overview}{9}}
\@writefile{toc}{\contentsline {subsection}{\numberline {3.1.1}Research Purpose}{10}}
\@writefile{toc}{\contentsline {subsection}{\numberline {3.1.2}Method Description}{11}}
\@writefile{lot}{\contentsline {table}{\numberline {3.1}{\ignorespaces The in-memory databases that are experimented in this paper.\relax }}{12}}
\providecommand*\caption@xref[2]{\@setref\relax\@undefined{#1}}
\newlabel{table:databases}{{3.1}{12}}
\@writefile{lot}{\contentsline {table}{\numberline {3.2}{\ignorespaces Specifications of the machine that is used to evaluate experiments.\relax }}{13}}
\newlabel{table:hardware}{{3.2}{13}}
\@writefile{lot}{\contentsline {table}{\numberline {3.3}{\ignorespaces Specifications of the software that is used to evaluate experiments.\relax }}{13}}
\newlabel{table:software}{{3.3}{13}}
\@writefile{toc}{\contentsline {subsection}{\numberline {3.1.3}Dataset}{13}}
\newlabel{code:ddl}{{3.1}{14}}
\@writefile{lol}{\contentsline {lstlisting}{\numberline {3.1}Schema of the benchmark database.}{14}}
\@writefile{lot}{\contentsline {table}{\numberline {3.4}{\ignorespaces Data structure of the MySQL \textit  {shop} table.\relax }}{15}}
\newlabel{table:mysql:shop}{{3.4}{15}}
\@writefile{lot}{\contentsline {table}{\numberline {3.5}{\ignorespaces Data structure of the MySQL \textit  {category} table.\relax }}{15}}
\newlabel{table:mysql:category}{{3.5}{15}}
\@writefile{lot}{\contentsline {table}{\numberline {3.6}{\ignorespaces Data structure of the MySQL \textit  {product} table.\relax }}{16}}
\newlabel{table:mysql:product}{{3.6}{16}}
\@writefile{lot}{\contentsline {table}{\numberline {3.7}{\ignorespaces Data structure of the MySQL \textit  {offer} table.\relax }}{16}}
\newlabel{table:mysql:offer}{{3.7}{16}}
\@writefile{toc}{\contentsline {subsubsection}{Relational Model}{16}}
\@writefile{toc}{\contentsline {subsubsection}{Document Store Model}{16}}
\@writefile{toc}{\contentsline {subsubsection}{Key-Value Store Model}{16}}
\@writefile{toc}{\contentsline {section}{\numberline {3.2}Evaluated Databases}{16}}
\@writefile{toc}{\contentsline {subsection}{\numberline {3.2.1}VoltDB}{16}}
\@writefile{toc}{\contentsline {subsection}{\numberline {3.2.2}AlaSQL}{16}}
\@writefile{toc}{\contentsline {subsection}{\numberline {3.2.3}ArangoDB}{16}}
\@writefile{toc}{\contentsline {subsection}{\numberline {3.2.4}MongoDB (Percona Server)}{16}}
\@writefile{toc}{\contentsline {subsection}{\numberline {3.2.5}LokiJS}{16}}
\@writefile{toc}{\contentsline {section}{\numberline {3.3}Environment and Tools}{17}}
\@writefile{toc}{\contentsline {subsection}{\numberline {3.3.1}Testing Environment}{17}}
\@writefile{toc}{\contentsline {subsection}{\numberline {3.3.2}Atom.io}{17}}
\@writefile{lof}{\contentsline {figure}{\numberline {3.1}{\ignorespaces Atom.io graphical user interface.\relax }}{18}}
\newlabel{atomio}{{3.1}{18}}
\@writefile{toc}{\contentsline {subsection}{\numberline {3.3.3}SQL}{18}}
\@writefile{toc}{\contentsline {subsection}{\numberline {3.3.4}AQL}{18}}
\@writefile{toc}{\contentsline {subsection}{\numberline {3.3.5}JAVA}{18}}
\newlabel{voltdb:procedure:example}{{3.2}{19}}
\@writefile{lol}{\contentsline {lstlisting}{\numberline {3.2}A stored procedure returning all rows from the offer table. Its parameters are limit and offset\tmspace  +\thinmuskip {.1667em} that were defined due to VoltDB single query's memory usage limit.}{19}}
\newlabel{java:compile}{{3.3}{19}}
\@writefile{lol}{\contentsline {lstlisting}{\numberline {3.3}Commands used to compile the VoltDB stored procedures written in JAVA.}{19}}
\@writefile{toc}{\contentsline {subsection}{\numberline {3.3.6}JavaScript}{19}}
\@writefile{toc}{\contentsline {subsection}{\numberline {3.3.7}NodeJS}{20}}
\@writefile{toc}{\contentsline {subsection}{\numberline {3.3.8}VoltDB Driver}{20}}
\@writefile{toc}{\contentsline {subsection}{\numberline {3.3.9}MySQL Driver}{20}}
\@writefile{toc}{\contentsline {subsection}{\numberline {3.3.10}ArangoDB Driver}{20}}
\@writefile{toc}{\contentsline {subsection}{\numberline {3.3.11}MongoDB Driver}{20}}
\@writefile{toc}{\contentsline {subsection}{\numberline {3.3.12}LokiJS Driver}{20}}
\@writefile{toc}{\contentsline {chapter}{\numberline {4}Experimental Results}{21}}
\@writefile{lof}{\addvspace {10\p@ }}
\@writefile{lot}{\addvspace {10\p@ }}
\@writefile{toc}{\contentsline {section}{\numberline {4.1}Results of Data Import Operations}{22}}
\@writefile{toc}{\contentsline {section}{\numberline {4.2}Results of SELECT Queries}{22}}
\@writefile{toc}{\contentsline {section}{\numberline {4.3}Results of SELECT all Queries}{22}}
\@writefile{toc}{\contentsline {section}{\numberline {4.4}Results SELECT with WHERE Condition Queries}{22}}
\@writefile{toc}{\contentsline {section}{\numberline {4.5}Results SELECT with WHERE and JOIN Statements Queries}{22}}
\@writefile{toc}{\contentsline {section}{\numberline {4.6}Results of INSERT n Records Queries}{22}}
\@writefile{toc}{\contentsline {section}{\numberline {4.7}Results of DELETE n Records Queries}{22}}
\@writefile{toc}{\contentsline {section}{\numberline {4.8}Results of DELETE all Records Queries}{22}}
\@writefile{toc}{\contentsline {section}{\numberline {4.9}Results Discussion}{22}}
\bibdata{biblio}
\@writefile{toc}{\contentsline {chapter}{\numberline {5}Conclusions}{23}}
\@writefile{lof}{\addvspace {10\p@ }}
\@writefile{lot}{\addvspace {10\p@ }}
\@writefile{toc}{\contentsline {section}{\numberline {5.1}Summary}{23}}
\@writefile{toc}{\contentsline {section}{\numberline {5.2}Further Development}{23}}
\@writefile{toc}{\contentsline {chapter}{Bibliography}{23}}
\@writefile{toc}{\contentsline {chapter}{List of Figures}{24}}
\@writefile{toc}{\contentsline {chapter}{List of Tables}{25}}
\@writefile{toc}{\contentsline {chapter}{Appendix:}{}}
\@writefile{toc}{\contentsline {chapter}{\numberline {A}Benchmark Database Schema}{27}}
\@writefile{lof}{\addvspace {10\p@ }}
\@writefile{lot}{\addvspace {10\p@ }}
